%YAML 1.1
%TAG !u! tag:unity3d.com,2011:
--- !u!74 &7400000
AnimationClip:
  m_ObjectHideFlags: 0
  m_CorrespondingSourceObject: {fileID: 0}
  m_PrefabInternal: {fileID: 0}
  m_Name: Warning-space-mid
  serializedVersion: 6
  m_Legacy: 0
  m_Compressed: 0
  m_UseHighQualityCurve: 1
  m_RotationCurves: []
  m_CompressedRotationCurves: []
  m_EulerCurves: []
  m_PositionCurves: []
  m_ScaleCurves: []
  m_FloatCurves: []
  m_PPtrCurves:
  - curve:
    - time: 0
      value: {fileID: 21300000, guid: c87aa09589b70fb448cd523116955b3e, type: 3}
    - time: 0.083333336
      value: {fileID: 21300000, guid: 877fe39fcb7a86e409ca2d6c759f5750, type: 3}
    - time: 0.16666667
      value: {fileID: 21300000, guid: a2bf26ea78c02e14e8ed4216a52f5644, type: 3}
    - time: 0.25
      value: {fileID: 21300000, guid: fa3c418fa78b4ca458e870df69a17e77, type: 3}
    - time: 0.33333334
      value: {fileID: 21300000, guid: 34cdbd62cfa58464b890548d89c1abf7, type: 3}
    - time: 0.41666666
      value: {fileID: 21300000, guid: 661a5dea652ae7442891f5b78273d923, type: 3}
    - time: 0.5
      value: {fileID: 21300000, guid: 3b474672a2edbce4b874e0a9fa19463c, type: 3}
    - time: 0.5833333
      value: {fileID: 21300000, guid: 1ba1ef3718e7b454e985218694b52808, type: 3}
    - time: 0.6666667
      value: {fileID: 21300000, guid: e660899c4a3e0ed4d8619c3ba8e6705f, type: 3}
    - time: 0.75
      value: {fileID: 21300000, guid: 225dba644925c6349aa6bfcce0de74e0, type: 3}
    - time: 0.8333333
      value: {fileID: 21300000, guid: e97848210288870428252ebbe2119fce, type: 3}
    - time: 0.9166667
      value: {fileID: 21300000, guid: 505c878e4f14b60438fab3f8ea194146, type: 3}
    - time: 1
      value: {fileID: 21300000, guid: 78748ece1894ff04f80722019153422e, type: 3}
    - time: 1.0833334
      value: {fileID: 21300000, guid: 1b7bdf4af00e9a6428e2a82f9375d3f1, type: 3}
    - time: 1.1666666
      value: {fileID: 21300000, guid: 46f945e9428069844910d130d1592a0c, type: 3}
    - time: 1.25
      value: {fileID: 21300000, guid: 4d932b22fa90dda4e9a0f83d8fb0b2cc, type: 3}
    - time: 1.3333334
      value: {fileID: 21300000, guid: a3b36bf0055184a4bae034c52b1c3c9a, type: 3}
    - time: 1.4166666
      value: {fileID: 21300000, guid: 1bc0700f730a77f46a4a55973d54de64, type: 3}
    - time: 1.5
      value: {fileID: 21300000, guid: 4a7c479d077739b459e235bb56fed1fe, type: 3}
    - time: 1.5833334
      value: {fileID: 21300000, guid: d07c671b39beceb4ab4faec5494c1480, type: 3}
    - time: 1.6666666
      value: {fileID: 21300000, guid: dbc0109caa7ea8c41aa174b4c4f97031, type: 3}
    - time: 1.75
      value: {fileID: 21300000, guid: 677106de5c5e0414083c17909a43cf4e, type: 3}
    - time: 1.8333334
      value: {fileID: 21300000, guid: c4bd8ccb2fb366841aaec4feaaaef08b, type: 3}
    - time: 1.9166666
      value: {fileID: 21300000, guid: 35e44bd593f77ff4fbee95039f558299, type: 3}
    - time: 2
      value: {fileID: 21300000, guid: 88678214d15d2a84fa28b2b7d27ef44f, type: 3}
    - time: 2.0833333
      value: {fileID: 21300000, guid: 0368e2047655cd44bacec4406447c5ae, type: 3}
    - time: 2.1666667
      value: {fileID: 21300000, guid: 8d05a2bf6102b9f44aaef2c66ca63407, type: 3}
    - time: 2.25
      value: {fileID: 21300000, guid: 9874d0afe57d9a647815cbd634a5b98d, type: 3}
    - time: 2.3333333
      value: {fileID: 21300000, guid: 52ef43809a650bc44acda95dabee2718, type: 3}
    - time: 2.4166667
      value: {fileID: 21300000, guid: c4bd55fc1b85916429875478d07f8c9c, type: 3}
    - time: 2.5
      value: {fileID: 21300000, guid: 9b228a7df655d4040961f37dc86d4954, type: 3}
    - time: 2.5833333
      value: {fileID: 21300000, guid: 28b950d7e7856b14b807749f167c6886, type: 3}
    - time: 2.6666667
      value: {fileID: 21300000, guid: 02da5236eec453549a983846909a3268, type: 3}
    - time: 2.75
      value: {fileID: 21300000, guid: 5b76866329f34404d8caac1562f6e145, type: 3}
    - time: 2.8333333
      value: {fileID: 21300000, guid: cd87dbce9baeb8f40b0e0a212e49dcd1, type: 3}
    - time: 2.9166667
      value: {fileID: 21300000, guid: 56520f106136e2746bc0e9192158aa15, type: 3}
    - time: 3
      value: {fileID: 21300000, guid: 1a016098951c71042a9189c2152e2ff9, type: 3}
    - time: 3.0833333
      value: {fileID: 21300000, guid: cf3bc960ec1d24841a3e256748cfbd14, type: 3}
    - time: 3.1666667
      value: {fileID: 21300000, guid: 525b6edbc182a9b4888725896e30fdda, type: 3}
    - time: 3.25
      value: {fileID: 21300000, guid: 9e8a28c09a15b12428c08fe0afc192b1, type: 3}
    - time: 3.3333333
      value: {fileID: 21300000, guid: 4f4de9c9e369b1e42855da4b5082149b, type: 3}
    - time: 3.4166667
      value: {fileID: 21300000, guid: c23e08cdb5bd4514ba70eb18289b03b2, type: 3}
    - time: 3.5
      value: {fileID: 21300000, guid: c35601d32923c9a4f8082542c701864e, type: 3}
    - time: 3.5833333
      value: {fileID: 21300000, guid: 51b3899c9db0c94468508f668559a3ad, type: 3}
    - time: 3.6666667
      value: {fileID: 21300000, guid: d3f424cb31224054d975496aaee8f5e8, type: 3}
    - time: 3.75
      value: {fileID: 21300000, guid: 9dc1bacf6ce4c6745a8c18e3a87dcaf2, type: 3}
    - time: 3.8333333
      value: {fileID: 21300000, guid: 3ca667cc2fb50ef47a36839a65ed0fd0, type: 3}
    - time: 3.9166667
      value: {fileID: 21300000, guid: 0b8d9645b27a195469df1bef982ff138, type: 3}
    - time: 4
      value: {fileID: 21300000, guid: a1c16c8593adbf54d86f5518926f2259, type: 3}
    - time: 4.0833335
      value: {fileID: 21300000, guid: fb005efdcd61a9a478e161a2f7194935, type: 3}
    - time: 4.1666665
      value: {fileID: 21300000, guid: 783fa2cf39c1c1c42b313a1a9b6cdcd6, type: 3}
    - time: 4.25
      value: {fileID: 21300000, guid: 1a92990f9723a684b95d78b8726f6615, type: 3}
    - time: 4.3333335
      value: {fileID: 21300000, guid: b38c89311bf6a7840a465e3f72602f81, type: 3}
    - time: 4.4166665
      value: {fileID: 21300000, guid: cab2a69827ae3b94d83a94ae3a0c7a1e, type: 3}
    - time: 4.5
      value: {fileID: 21300000, guid: 85d6dedb1c967034da5a13d680c4e501, type: 3}
    - time: 4.5833335
      value: {fileID: 21300000, guid: dcbbbd999e3ca9947bea698483f15f59, type: 3}
    - time: 4.6666665
      value: {fileID: 21300000, guid: 190d72fe013b6ed4388ad8f5e47b8672, type: 3}
    - time: 4.75
      value: {fileID: 21300000, guid: 3878d1b7dc929f24494825eb8cc65ab6, type: 3}
    - time: 4.8333335
      value: {fileID: 21300000, guid: 7a48f064718bb984594c6ae2c7fda522, type: 3}
    - time: 4.9166665
      value: {fileID: 21300000, guid: 59b9ce0ad61217448b8eb4243809ac45, type: 3}
    - time: 5
      value: {fileID: 21300000, guid: c5406d4bf7e095a4fbf94adde0f2799e, type: 3}
    attribute: m_Sprite
    path: 
    classID: 212
    script: {fileID: 0}
  m_SampleRate: 12
  m_WrapMode: 0
  m_Bounds:
    m_Center: {x: 0, y: 0, z: 0}
    m_Extent: {x: 0, y: 0, z: 0}
  m_ClipBindingConstant:
    genericBindings:
    - serializedVersion: 2
      path: 0
      attribute: 0
      script: {fileID: 0}
      typeID: 212
      customType: 23
      isPPtrCurve: 1
    pptrCurveMapping:
    - {fileID: 21300000, guid: c87aa09589b70fb448cd523116955b3e, type: 3}
    - {fileID: 21300000, guid: 877fe39fcb7a86e409ca2d6c759f5750, type: 3}
    - {fileID: 21300000, guid: a2bf26ea78c02e14e8ed4216a52f5644, type: 3}
    - {fileID: 21300000, guid: fa3c418fa78b4ca458e870df69a17e77, type: 3}
    - {fileID: 21300000, guid: 34cdbd62cfa58464b890548d89c1abf7, type: 3}
    - {fileID: 21300000, guid: 661a5dea652ae7442891f5b78273d923, type: 3}
    - {fileID: 21300000, guid: 3b474672a2edbce4b874e0a9fa19463c, type: 3}
    - {fileID: 21300000, guid: 1ba1ef3718e7b454e985218694b52808, type: 3}
    - {fileID: 21300000, guid: e660899c4a3e0ed4d8619c3ba8e6705f, type: 3}
    - {fileID: 21300000, guid: 225dba644925c6349aa6bfcce0de74e0, type: 3}
    - {fileID: 21300000, guid: e97848210288870428252ebbe2119fce, type: 3}
    - {fileID: 21300000, guid: 505c878e4f14b60438fab3f8ea194146, type: 3}
    - {fileID: 21300000, guid: 78748ece1894ff04f80722019153422e, type: 3}
    - {fileID: 21300000, guid: 1b7bdf4af00e9a6428e2a82f9375d3f1, type: 3}
    - {fileID: 21300000, guid: 46f945e9428069844910d130d1592a0c, type: 3}
    - {fileID: 21300000, guid: 4d932b22fa90dda4e9a0f83d8fb0b2cc, type: 3}
    - {fileID: 21300000, guid: a3b36bf0055184a4bae034c52b1c3c9a, type: 3}
    - {fileID: 21300000, guid: 1bc0700f730a77f46a4a55973d54de64, type: 3}
    - {fileID: 21300000, guid: 4a7c479d077739b459e235bb56fed1fe, type: 3}
    - {fileID: 21300000, guid: d07c671b39beceb4ab4faec5494c1480, type: 3}
    - {fileID: 21300000, guid: dbc0109caa7ea8c41aa174b4c4f97031, type: 3}
    - {fileID: 21300000, guid: 677106de5c5e0414083c17909a43cf4e, type: 3}
    - {fileID: 21300000, guid: c4bd8ccb2fb366841aaec4feaaaef08b, type: 3}
    - {fileID: 21300000, guid: 35e44bd593f77ff4fbee95039f558299, type: 3}
    - {fileID: 21300000, guid: 88678214d15d2a84fa28b2b7d27ef44f, type: 3}
    - {fileID: 21300000, guid: 0368e2047655cd44bacec4406447c5ae, type: 3}
    - {fileID: 21300000, guid: 8d05a2bf6102b9f44aaef2c66ca63407, type: 3}
    - {fileID: 21300000, guid: 9874d0afe57d9a647815cbd634a5b98d, type: 3}
    - {fileID: 21300000, guid: 52ef43809a650bc44acda95dabee2718, type: 3}
    - {fileID: 21300000, guid: c4bd55fc1b85916429875478d07f8c9c, type: 3}
    - {fileID: 21300000, guid: 9b228a7df655d4040961f37dc86d4954, type: 3}
    - {fileID: 21300000, guid: 28b950d7e7856b14b807749f167c6886, type: 3}
    - {fileID: 21300000, guid: 02da5236eec453549a983846909a3268, type: 3}
    - {fileID: 21300000, guid: 5b76866329f34404d8caac1562f6e145, type: 3}
    - {fileID: 21300000, guid: cd87dbce9baeb8f40b0e0a212e49dcd1, type: 3}
    - {fileID: 21300000, guid: 56520f106136e2746bc0e9192158aa15, type: 3}
    - {fileID: 21300000, guid: 1a016098951c71042a9189c2152e2ff9, type: 3}
    - {fileID: 21300000, guid: cf3bc960ec1d24841a3e256748cfbd14, type: 3}
    - {fileID: 21300000, guid: 525b6edbc182a9b4888725896e30fdda, type: 3}
    - {fileID: 21300000, guid: 9e8a28c09a15b12428c08fe0afc192b1, type: 3}
    - {fileID: 21300000, guid: 4f4de9c9e369b1e42855da4b5082149b, type: 3}
    - {fileID: 21300000, guid: c23e08cdb5bd4514ba70eb18289b03b2, type: 3}
    - {fileID: 21300000, guid: c35601d32923c9a4f8082542c701864e, type: 3}
    - {fileID: 21300000, guid: 51b3899c9db0c94468508f668559a3ad, type: 3}
    - {fileID: 21300000, guid: d3f424cb31224054d975496aaee8f5e8, type: 3}
    - {fileID: 21300000, guid: 9dc1bacf6ce4c6745a8c18e3a87dcaf2, type: 3}
    - {fileID: 21300000, guid: 3ca667cc2fb50ef47a36839a65ed0fd0, type: 3}
    - {fileID: 21300000, guid: 0b8d9645b27a195469df1bef982ff138, type: 3}
    - {fileID: 21300000, guid: a1c16c8593adbf54d86f5518926f2259, type: 3}
    - {fileID: 21300000, guid: fb005efdcd61a9a478e161a2f7194935, type: 3}
    - {fileID: 21300000, guid: 783fa2cf39c1c1c42b313a1a9b6cdcd6, type: 3}
    - {fileID: 21300000, guid: 1a92990f9723a684b95d78b8726f6615, type: 3}
    - {fileID: 21300000, guid: b38c89311bf6a7840a465e3f72602f81, type: 3}
    - {fileID: 21300000, guid: cab2a69827ae3b94d83a94ae3a0c7a1e, type: 3}
    - {fileID: 21300000, guid: 85d6dedb1c967034da5a13d680c4e501, type: 3}
    - {fileID: 21300000, guid: dcbbbd999e3ca9947bea698483f15f59, type: 3}
    - {fileID: 21300000, guid: 190d72fe013b6ed4388ad8f5e47b8672, type: 3}
    - {fileID: 21300000, guid: 3878d1b7dc929f24494825eb8cc65ab6, type: 3}
    - {fileID: 21300000, guid: 7a48f064718bb984594c6ae2c7fda522, type: 3}
    - {fileID: 21300000, guid: 59b9ce0ad61217448b8eb4243809ac45, type: 3}
    - {fileID: 21300000, guid: c5406d4bf7e095a4fbf94adde0f2799e, type: 3}
  m_AnimationClipSettings:
    serializedVersion: 2
    m_AdditiveReferencePoseClip: {fileID: 0}
    m_AdditiveReferencePoseTime: 0
    m_StartTime: 0
    m_StopTime: 5.0833335
    m_OrientationOffsetY: 0
    m_Level: 0
    m_CycleOffset: 0
    m_HasAdditiveReferencePose: 0
    m_LoopTime: 1
    m_LoopBlend: 0
    m_LoopBlendOrientation: 0
    m_LoopBlendPositionY: 0
    m_LoopBlendPositionXZ: 0
    m_KeepOriginalOrientation: 0
    m_KeepOriginalPositionY: 1
    m_KeepOriginalPositionXZ: 0
    m_HeightFromFeet: 0
    m_Mirror: 0
  m_EditorCurves: []
  m_EulerEditorCurves: []
  m_HasGenericRootTransform: 0
  m_HasMotionFloatCurves: 0
  m_GenerateMotionCurves: 0
  m_Events: []
